Week 5 Activity: Making Tidy Data
…
```r
library(readr)
original <- read_delim("data/dataset1.tds", 
                       delim = "\t")
```
--
Print the tibble to screen (shows only the first 10 lines).

```r
original
```

```
# A tibble: 5,537 x 40
   GID   YORF  NAME  GWEIGHT G0.05  G0.1 G0.15  G0.2 G0.25  G0.3 N0.05  N0.1 N0.15   N0.2
   <chr> <chr> <chr>   <dbl> <dbl> <dbl> <dbl> <dbl> <dbl> <dbl> <dbl> <dbl> <dbl>  <dbl>
 1 GENE… A_06… "SFB…       1 -0.24 -0.13 -0.21 -0.15 -0.05 -0.05  0.2   0.24 -0.2  -0.42 
 2 GENE… A_06… "   …       1  0.28  0.13 -0.4  -0.48 -0.11  0.17  0.31  0    -0.63 -0.44 
 3 GENE… A_06… "QRI…       1 -0.02 -0.27 -0.27 -0.02  0.24  0.25  0.23  0.06 -0.66 -0.4  
 4 GENE… A_06… "CFT…       1 -0.33 -0.41 -0.24 -0.03 -0.03  0     0.2  -0.25 -0.49 -0.49 
 5 GENE… A_06… "SSO…       1  0.05  0.02  0.4   0.34 -0.13 -0.14 -0.35 -0.09 -0.08 -0.580
 6 GENE… A_06… "PSP…       1 -0.69 -0.03  0.23  0.2   0    -0.27  0.17 -0.4  -0.54 -1.19 
 7 GENE… A_06… "RIB…       1 -0.55 -0.3  -0.12 -0.03 -0.16 -0.11  0.04  0    -0.63 -0.51 
 8 GENE… A_06… "VMA…       1 -0.75 -0.12 -0.07  0.02 -0.32 -0.41  0.11 -0.16 -0.26 -0.42 
 9 GENE… A_06… "EDC…       1 -0.24 -0.22  0.14  0.06  0    -0.13  0.3   0.07 -0.3  -0.01 
10 GENE… A_06… "VPS…       1 -0.16 -0.38  0.05  0.14 -0.04 -0.01  0.39  0.2   0.27  0.19 
# … with 5,527 more rows, and 26 more variables: N0.25 <dbl>, N0.3 <dbl>, P0.05 <dbl>,
#   P0.1 <dbl>, P0.15 <dbl>, P0.2 <dbl>, P0.25 <dbl>, P0.3 <dbl>, S0.05 <dbl>, S0.1 <dbl>,
#   S0.15 <dbl>, S0.2 <dbl>, S0.25 <dbl>, S0.3 <dbl>, L0.05 <dbl>, L0.1 <dbl>, L0.15 <dbl>,
#   L0.2 <dbl>, L0.25 <dbl>, L0.3 <dbl>, U0.05 <dbl>, U0.1 <dbl>, U0.15 <dbl>, U0.2 <dbl>,
#   U0.25 <dbl>, U0.3 <dbl>
```
…
