Module 2 - Week 5: Data prep for visualization
…
---

**select:** Extract the _columns_ for year, manufacturer, and average fuel efficiency

.panelset[
.panel[.panel-name[R]

```r
mpg %>% select(year, manufacturer, avg)
```

```
# A tibble: 234 x 3
    year manufacturer   avg
   <dbl> <chr>        <dbl>
 1  1999 audi          9.89
 2  1999 audi         10.5 
 3  2008 audi         10.7 
 4  2008 audi         10.7 
 5  1999 audi          8.84
 6  1999 audi          9.26
 7  2008 audi          9.47
 8  1999 audi          9.26
 9  1999 audi          8.63
10  2008 audi         10.1 
# … with 224 more rows
```
…
---

A bit more complicated: Extract columns starting with some character expression

.panelset[
.panel[.panel-name[R]

```r
weather <- read_csv('data/weather.csv')
weather %>% select(starts_with('d'))
```

```
# A tibble: 22 x 31
      d1    d2    d3    d4    d5    d6    d7    d8 d9      d10   d11 d12     d13
   <dbl> <dbl> <dbl> <dbl> <dbl> <dbl> <dbl> <dbl> <lgl> <dbl> <dbl> <lgl> <dbl>
 1    NA  NA    NA      NA  NA      NA    NA    NA NA     NA    NA   NA       NA
 2    NA  NA    NA      NA  NA      NA    NA    NA NA     NA    NA   NA       NA
 3    NA  27.3  24.1    NA  NA      NA    NA    NA NA     NA    29.7 NA       NA
 4    NA  14.4  14.4    NA  NA      NA    NA    NA NA     NA    13.4 NA       NA
 5    NA  NA    NA      NA  32.1    NA    NA    NA NA     34.5  NA   NA       NA
 6    NA  NA    NA      NA  14.2    NA    NA    NA NA     16.8  NA   NA       NA
 7    NA  NA    NA      NA  NA      NA    NA    NA NA     NA    NA   NA       NA
 8    NA  NA    NA      NA  NA      NA    NA    NA NA     NA    NA   NA       NA
 9    NA  NA    NA      NA  NA      NA    NA    NA NA     NA    NA   NA       NA
10    NA  NA    NA      NA  NA      NA    NA    NA NA     NA    NA   NA       NA
# … with 12 more rows, and 18 more variables: d14 <dbl>, d15 <dbl>, d16 <dbl>,
#   d17 <dbl>, d18 <lgl>, d19 <lgl>, d20 <lgl>, d21 <lgl>, d22 <lgl>,
#   d23 <dbl>, d24 <lgl>, d25 <dbl>, d26 <dbl>, d27 <dbl>, d28 <dbl>,
#   d29 <dbl>, d30 <dbl>, d31 <dbl>
```
…
---

**arrange:** Arrange cars from highest to lowest fuel efficiency

.panelset[
.panel[.panel-name[R]

```r
mpg %>% arrange(-avg)
```

```
# A tibble: 234 x 12
   manufacturer model displ  year   cyl trans drv     cty   hwy fl    class
   <chr>        <chr> <dbl> <dbl> <dbl> <chr> <chr> <dbl> <dbl> <chr> <chr>
 1 volkswagen   new …   1.9  1999     4 manu… f      14.7  18.5 d     subc…
 2 volkswagen   jetta   1.9  1999     4 manu… f      13.9  18.5 d     comp…
 3 volkswagen   new …   1.9  1999     4 auto… f      12.2  17.3 d     subc…
 4 toyota       coro…   1.8  2008     4 manu… f      11.8  15.6 r     comp…
 5 honda        civic   1.6  1999     4 manu… f      11.8  13.9 r     subc…
 6 honda        civic   1.8  2008     4 auto… f      10.5  15.2 r     subc…
 7 toyota       coro…   1.8  1999     4 manu… f      10.9  14.7 r     comp…
 8 toyota       coro…   1.8  2008     4 auto… f      10.9  14.7 r     comp…
 9 honda        civic   1.8  2008     4 manu… f      10.9  14.3 r     subc…
10 honda        civic   1.8  2008     4 auto… f      10.1  15.2 c     subc…
# … with 224 more rows, and 1 more variable: avg <dbl>
```
…
---

**Question** Find the average life expectancy by country

.panelset[
.panel[.panel-name[R]

```r
gap %>% group_by(country) %>% summarize(avgLifeExp = mean(lifeExp))
```

```
# A tibble: 142 x 2
   country     avgLifeExp
   <chr>            <dbl>
 1 Afghanistan       37.5
 2 Albania           68.4
 3 Algeria           59.0
 4 Angola            37.9
 5 Argentina         69.1
 6 Australia         74.7
 7 Austria           73.1
 8 Bahrain           65.6
 9 Bangladesh        49.8
10 Belgium           73.6
# … with 132 more rows
```
…
---

**Question** Find the average life expectancy by continent and year

.panelset[
.panel[.panel-name[R]

```r
gap %>% group_by(continent, year) %>% summarize(mean(lifeExp))
```

```
# A tibble: 60 x 3
# Groups:   continent [5]
   continent  year `mean(lifeExp)`
   <chr>     <dbl>           <dbl>
 1 Africa     1952            39.1
 2 Africa     1957            41.3
 3 Africa     1962            43.3
 4 Africa     1967            45.3
 5 Africa     1972            47.5
 6 Africa     1977            49.6
 7 Africa     1982            51.6
 8 Africa     1987            53.3
 9 Africa     1992            53.6
10 Africa     1997            53.6
# … with 50 more rows
```
…
