Module 2 – Week 6 Exploratory Data Analysis (EDA)
…
### Data summaries
.panel1-pivottrick-auto[

```r
msleep %>% select( where(is.numeric)) %>%
* pivot_longer(names_to = 'Variable', values_to = 'value', cols=everything())
```
]
 
.panel2-pivottrick-auto[

```
# A tibble: 498 x 2
   Variable    value
   <chr>       <dbl>
 1 sleep_total  12.1
 2 sleep_rem    NA  
 3 sleep_cycle  NA  
 4 awake        11.9
 5 brainwt      NA  
 6 bodywt       50  
 7 sleep_total  17  
 8 sleep_rem     1.8
 9 sleep_cycle  NA  
10 awake         7  
# … with 488 more rows
```
…
### Data summaries
.panel1-pivottrick-auto[

```r
msleep %>% select( where(is.numeric)) %>%
  pivot_longer(names_to = 'Variable', values_to = 'value', cols=everything()) %>%
* group_by(Variable)
```
]
 
.panel2-pivottrick-auto[

```
# A tibble: 498 x 2
# Groups:   Variable [6]
   Variable    value
   <chr>       <dbl>
 1 sleep_total  12.1
 2 sleep_rem    NA  
 3 sleep_cycle  NA  
 4 awake        11.9
 5 brainwt      NA  
 6 bodywt       50  
 7 sleep_total  17  
 8 sleep_rem     1.8
 9 sleep_cycle  NA  
10 awake         7  
# … with 488 more rows
```
…
